Homework 4
…
## Parsed with column specification:
## cols(
##   DATE = col_date(format = ""),
##   VALUE = col_double()
## )

five38 <- inner_join(pols, gdp, by = "date") %>% 
  select(date, everything())

View Data

five38

## # A tibble: 273 x 11
##          date prez_gop gov_gop sen_gop rep_gop prez_dem gov_dem sen_dem
##        <date>    <int>   <int>   <int>   <int>    <int>   <int>   <int>
##  1 1947-01-01        0      23      51     253        1      23      45
##  2 1947-04-01        0      23      51     253        1      23      45
##  3 1947-07-01        0      23      51     253        1      23      45
##  4 1947-10-01        0      23      51     253        1      23      45
##  5 1948-01-01        0      22      53     253        1      24      48
##  6 1948-04-01        0      22      53     253        1      24      48
##  7 1948-07-01        0      22      53     253        1      24      48
##  8 1948-10-01        0      22      53     253        1      24      48
##  9 1949-01-01        0      18      45     177        1      29      58
## 10 1949-04-01        0      18      45     177        1      29      58
## # ... with 263 more rows, and 3 more variables: rep_dem <int>,
## #   president <chr>, gdp_value <dbl>
…
